R para Ciência de Dados (2ª edição) - 27 Um guia para o R base
…
Então, em vez de iterar sobre os elementos de caminhos, iremos iterar sobre seus índices, usando seq_along() para gerar um índice para cada elemento de paths:

seq_along(caminhos)
#>  [1]  1  2  3  4  5  6  7  8  9 10 11 12

Usar os índices é importante porque nos permite vincular cada posição na entrada com a posição correspondente na saída:

for (i in seq_along(caminhos)) {
  arquivos[[i]] <- readxl::read_excel(caminhos[[i]])
}

Para combinar a lista de tibbles em um único tibble você pode usar do.call() + rbind():

do.call(rbind, arquivos)
#> # A tibble: 1,704 × 5
#>   country     continent lifeExp      pop gdpPercap
#>   <chr>       <chr>       <dbl>    <dbl>     <dbl>
#> 1 Afghanistan Asia         28.8  8425333      779.
#> 2 Albania     Europe       55.2  1282697     1601.
#> 3 Algeria     Africa       43.1  9279525     2449.
#> 4 Angola      Africa       30.0  4232095     3521.
#> 5 Argentina   Americas     62.5 17876956     5911.
#> 6 Australia   Oceania      69.1  8691212    10040.
#> # ℹ 1,698 more rows
…
