R para Ciência de Dados (2ª edição) - 5 ✅ Organizando os dados (data tidying)
…
Geralmente os dados estão organizados para facilitar algum outro objetivo além da análise. Por exemplo, é comum os dados estarem estruturados para facilitar a entrada de novos dados e não a análise dos mesmos.

A maioria das pessoas não está familiarizada com os princípios do formato tidy e é difícil derivá-lo espontaneamente a menos que já se tenha trabalhado com dados por muito tempo.

Isso significa que a maioria das análises reais vai demandar pelo menos alguma adaptação para o formato tidy. Você vai começar descobrindo quais são as variáveis e observações presentes. Algumas vezes isso é fácil, em outras você precisará consultar as pessoas que geraram os dados originalmente. Em seguida, você irá *pivotar** seus dados para o formato tidy, com as variáveis nas colunas e as observações nas linhas.

tidyr disponibiliza duas funções para pivotar os dados: pivot_longer() e pivot_wider(). Começaremos com pivot_longer() pois é o caso mais comum. Vamos nos aprofundar em alguns exemplos.

5.3.1 Dados nos nomes das colunas

O conjunto de dados top100musicas marca a posição das músicas na billboard no ano 2000:

top100musicas

# A tibble: 317 × 79
   artista        musica data.adicionada semana1 semana2 semana3 semana4 semana5
   <chr>          <chr>  <date>            <dbl>   <dbl>   <dbl>   <dbl>   <dbl>
 1 2 Pac          Baby … 2000-02-26           87      82      72      77      87
 2 2Ge+her        The H… 2000-09-02           91      87      92      NA      NA
 3 3 Doors Down   Krypt… 2000-04-08           81      70      68      67      66
 4 3 Doors Down   Loser  2000-10-21           76      76      72      69      67
 5 504 Boyz       Wobbl… 2000-04-15           57      34      25      17      17
 6 98^0           Give … 2000-08-19           51      39      34      26      26
 7 A*Teens        Danci… 2000-07-08           97      97      96      95     100
 8 Aaliyah        I Don… 2000-01-29           84      62      51      41      38
 9 Aaliyah        Try A… 2000-03-18           59      53      38      28      21
10 Adams, Yolanda Open … 2000-08-26           76      76      74      69      68
# ℹ 307 more rows
# ℹ 71 more variables: semana6 <dbl>, semana7 <dbl>, semana8 <dbl>,
#   semana9 <dbl>, semana10 <dbl>, semana11 <dbl>, semana12 <dbl>,
#   semana13 <dbl>, semana14 <dbl>, semana15 <dbl>, semana16 <dbl>,
#   semana17 <dbl>, semana18 <dbl>, semana19 <dbl>, semana20 <dbl>,
#   semana21 <dbl>, semana22 <dbl>, semana23 <dbl>, semana24 <dbl>,
#   semana25 <dbl>, semana26 <dbl>, semana27 <dbl>, semana28 <dbl>, …

Nesse conjunto de dados, cada observação é uma música. As três primeiras colunas (artista, musica e data.adicionada) são variáveis que descrevem a música. Em seguida, temos 76 colunas (semana1-semana76) que descrevem a posição da música em cada semana1. Aqui, o nome das colunas é uma variável (a semana) e o valor da célula é outra (a posicao).

Para transformar esses dados em tidy, vamos usar pivot_longer():

top100musicas|>
  pivot_longer(
    cols = starts_with("semana"), 
    names_to = "semana", 
    values_to = "posicao"
  )

# A tibble: 24,092 × 5
   artista musica                  data.adicionada semana   posicao
   <chr>   <chr>                   <date>          <chr>      <dbl>
 1 2 Pac   Baby Don't Cry (Keep... 2000-02-26      semana1       87
 2 2 Pac   Baby Don't Cry (Keep... 2000-02-26      semana2       82
 3 2 Pac   Baby Don't Cry (Keep... 2000-02-26      semana3       72
 4 2 Pac   Baby Don't Cry (Keep... 2000-02-26      semana4       77
 5 2 Pac   Baby Don't Cry (Keep... 2000-02-26      semana5       87
 6 2 Pac   Baby Don't Cry (Keep... 2000-02-26      semana6       94
 7 2 Pac   Baby Don't Cry (Keep... 2000-02-26      semana7       99
 8 2 Pac   Baby Don't Cry (Keep... 2000-02-26      semana8       NA
 9 2 Pac   Baby Don't Cry (Keep... 2000-02-26      semana9       NA
10 2 Pac   Baby Don't Cry (Keep... 2000-02-26      semana10      NA
# ℹ 24,082 more rows
…
values_to nomeia a variável armazenada nos valores das células, nós nomeamos aquela variável como posicao.

Note que os códigos "semana" e "posicao" estão entre aspas porque essas são novas variáveis que estamos criando, elas ainda não existem nos dados quando a gente faz a chamada à pivot_longer().

Agora voltaremos nossa atenção ao data frame resultante, em um formato mais longo. O que acontece se uma música fica no top 100 por menos que 76 semanas? Vejamos “Baby Don’t Cry” do 2 Pac, por exemplo. A saída acima sugere que ela ficou apenas 7 semanas no top 100, e todas as demais semanas foram preenchidas por valores ausentes. Esses NAs, na verdade, não representam observações desconhecidas; eles foram forçadas a existir pela estrutura do conjunto de dados 2, então podemos pedir para a pivot_longer() se livrar deles por meio do parâmetro values_drop_na = TRUE:

top100musicas|> 
  pivot_longer(
    cols = starts_with("semana"), 
    names_to = "semana", 
    values_to = "posicao",
    values_drop_na = TRUE
  )

# A tibble: 5,307 × 5
   artista musica                  data.adicionada semana  posicao
   <chr>   <chr>                   <date>          <chr>     <dbl>
 1 2 Pac   Baby Don't Cry (Keep... 2000-02-26      semana1      87
 2 2 Pac   Baby Don't Cry (Keep... 2000-02-26      semana2      82
 3 2 Pac   Baby Don't Cry (Keep... 2000-02-26      semana3      72
 4 2 Pac   Baby Don't Cry (Keep... 2000-02-26      semana4      77
 5 2 Pac   Baby Don't Cry (Keep... 2000-02-26      semana5      87
 6 2 Pac   Baby Don't Cry (Keep... 2000-02-26      semana6      94
 7 2 Pac   Baby Don't Cry (Keep... 2000-02-26      semana7      99
 8 2Ge+her The Hardest Part Of ... 2000-09-02      semana1      91
 9 2Ge+her The Hardest Part Of ... 2000-09-02      semana2      87
10 2Ge+her The Hardest Part Of ... 2000-09-02      semana3      92
# ℹ 5,297 more rows
…
Esses dados agora estão no formato tidy, mas nós ainda podemos facilitar cálculos futuros ao converter os valores da coluna semana de caracteres para números utilizando mutate() e readr::parse_number(). parse_number() é uma função bem útil que irá extrair o primeiro número de uma sequência de caracteres (string) e vai ignorar todo o resto.

top100musicas_longo <- top100musicas |> 
  pivot_longer(
    cols = starts_with("semana"), 
    names_to = "semana", 
    values_to = "posicao",
    values_drop_na = TRUE
  ) |> 
  mutate(
    semana = parse_number(semana)
  )
top100musicas_longo

# A tibble: 5,307 × 5
   artista musica                  data.adicionada semana posicao
   <chr>   <chr>                   <date>           <dbl>   <dbl>
 1 2 Pac   Baby Don't Cry (Keep... 2000-02-26           1      87
 2 2 Pac   Baby Don't Cry (Keep... 2000-02-26           2      82
 3 2 Pac   Baby Don't Cry (Keep... 2000-02-26           3      72
 4 2 Pac   Baby Don't Cry (Keep... 2000-02-26           4      77
 5 2 Pac   Baby Don't Cry (Keep... 2000-02-26           5      87
 6 2 Pac   Baby Don't Cry (Keep... 2000-02-26           6      94
 7 2 Pac   Baby Don't Cry (Keep... 2000-02-26           7      99
 8 2Ge+her The Hardest Part Of ... 2000-09-02           1      91
 9 2Ge+her The Hardest Part Of ... 2000-09-02           2      87
10 2Ge+her The Hardest Part Of ... 2000-09-02           3      92
# ℹ 5,297 more rows
…
Figura 5.5: O número de valores é preservado (não repetidos), mas “desenrolado” linha-a-linha.

5.3.3 Muitas variáveis nos nomes de colunas

Uma situação mais desafiadora ocorre quando tem-se muitas partes de informação aglomeradas nos nomes das colunas, e você gostaria de armazená-las em variáveis separadas. Por exemplo, pegue o conjunto de dados who2, que é a fonte da tabela1 e outros amigos que você viu acima:

who2

# A tibble: 7,240 × 58
   country      year sp_m_014 sp_m_1524 sp_m_2534 sp_m_3544 sp_m_4554 sp_m_5564
   <chr>       <dbl>    <dbl>     <dbl>     <dbl>     <dbl>     <dbl>     <dbl>
 1 Afghanistan  1980       NA        NA        NA        NA        NA        NA
 2 Afghanistan  1981       NA        NA        NA        NA        NA        NA
 3 Afghanistan  1982       NA        NA        NA        NA        NA        NA
 4 Afghanistan  1983       NA        NA        NA        NA        NA        NA
 5 Afghanistan  1984       NA        NA        NA        NA        NA        NA
 6 Afghanistan  1985       NA        NA        NA        NA        NA        NA
 7 Afghanistan  1986       NA        NA        NA        NA        NA        NA
 8 Afghanistan  1987       NA        NA        NA        NA        NA        NA
 9 Afghanistan  1988       NA        NA        NA        NA        NA        NA
10 Afghanistan  1989       NA        NA        NA        NA        NA        NA
# ℹ 7,230 more rows
# ℹ 50 more variables: sp_m_65 <dbl>, sp_f_014 <dbl>, sp_f_1524 <dbl>,
#   sp_f_2534 <dbl>, sp_f_3544 <dbl>, sp_f_4554 <dbl>, sp_f_5564 <dbl>,
#   sp_f_65 <dbl>, sn_m_014 <dbl>, sn_m_1524 <dbl>, sn_m_2534 <dbl>,
#   sn_m_3544 <dbl>, sn_m_4554 <dbl>, sn_m_5564 <dbl>, sn_m_65 <dbl>,
#   sn_f_014 <dbl>, sn_f_1524 <dbl>, sn_f_2534 <dbl>, sn_f_3544 <dbl>,
#   sn_f_4554 <dbl>, sn_f_5564 <dbl>, sn_f_65 <dbl>, ep_m_014 <dbl>, …

Esse conjunto de dados, coletado pela Organização Mundial da Saúde (OMS)3, armazena informações sobre diagnósticos de tuberculose. Existem duas colunas que já são variáveis e parecem fáceis de interpretar: country e year. Em seguida vêm outras 56 colunas tais como sp_m_014, ep_m_4554 e rel_m_3544. Se você olhar com cuidado para essas colunas por tempo suficiente, verá que há um padrão. Cada nome de coluna é composto por três partes separadas por _. A primeira parte, sp/rel/ep, descreve o método utilizado para o diagnóstico, a segunda parte, m/f é o gênero - gender (codificado como uma variável binária nesse conjunto de dados), e a terceira parte, 014/1524/2534/3544/4554/5564/65 é o intervalo de idade - age (014 representa 0-14, por exemplo).

Então, nesse caso temos seis partes de informação registrados em who2: o país (country) e o ano (year) (já nas colunas); o método diagnóstico, a categoria do gênero, e a categoria do intervalo de idade (contido nos outros nomes de colunas); e a contagem dos pacientes em naquela categoria (valores das células). Para organizar essas seis partes de informação em seis colunas separadas, utilizaremos pivot_longer() passando um vetor de nomes de colunas para o parâmetro names_to, instruções para separar, nas partes, os nomes originais das variáveis para o parâmetro names_sep e um nome de coluna para values_to:

who2 |> 
  pivot_longer(
    cols = !(country:year),
    names_to = c("diagnosis", "gender", "age"), 
    names_sep = "_",
    values_to = "count"
  )

# A tibble: 405,440 × 6
   country      year diagnosis gender age   count
   <chr>       <dbl> <chr>     <chr>  <chr> <dbl>
 1 Afghanistan  1980 sp        m      014      NA
 2 Afghanistan  1980 sp        m      1524     NA
 3 Afghanistan  1980 sp        m      2534     NA
 4 Afghanistan  1980 sp        m      3544     NA
 5 Afghanistan  1980 sp        m      4554     NA
 6 Afghanistan  1980 sp        m      5564     NA
 7 Afghanistan  1980 sp        m      65       NA
 8 Afghanistan  1980 sp        f      014      NA
 9 Afghanistan  1980 sp        f      1524     NA
10 Afghanistan  1980 sp        f      2534     NA
# ℹ 405,430 more rows
…
Figura 5.7: Pivotar com names_to = c(".value", "num") divide os nomes das colunas em dois componentes: a primeira parte determina o nome da coluna da saída, (x ou y), e a segunda parte determina o valore da coluna num.

5.4 Transformando os dados para o formato largo (Widening data)

Até então, utilizamos pivot_longer() para resolver um tipo comum de problemas no qual os valores foram movidos para os nomes de colunas. Agora vamos pivotar (HA HA) para pivot_wider(), que vai tornar o conjunto de dados mais largo (wider) ao aumentar o número de colunas e diminuir o número de linhas, auxiliando quando uma informação está espalhada em múltiplas linhas. Isso tende a aparecer menos na vida real, mas parece ser comum quando estamos lidando com dados governamentais.

Começaremos dando uma olhada em cms_paciente_experiencia, um conjunto de dados de serviços do Centers of Medicare and Medicaid que coleta dados sobre as experiências dos pacientes:

cms_paciente_experiencia

# A tibble: 500 × 5
   organizacao_id organizacao_nome  medida_codigo medida_titulo taxa_performance
   <chr>          <chr>             <chr>         <chr>                    <dbl>
 1 0446157747     USC CARE MEDICAL… CAHPS_GRP_1   Obtenção de …               63
 2 0446157747     USC CARE MEDICAL… CAHPS_GRP_2   O quão bem o…               87
 3 0446157747     USC CARE MEDICAL… CAHPS_GRP_3   CAHPS for MI…               86
 4 0446157747     USC CARE MEDICAL… CAHPS_GRP_5   Promoção e e…               57
 5 0446157747     USC CARE MEDICAL… CAHPS_GRP_8   Equipe do co…               85
 6 0446157747     USC CARE MEDICAL… CAHPS_GRP_12  Administraçã…               24
 7 0446162697     ASSOCIATION OF U… CAHPS_GRP_1   Obtenção de …               59
 8 0446162697     ASSOCIATION OF U… CAHPS_GRP_2   O quão bem o…               85
 9 0446162697     ASSOCIATION OF U… CAHPS_GRP_3   CAHPS for MI…               83
10 0446162697     ASSOCIATION OF U… CAHPS_GRP_5   Promoção e e…               63
# ℹ 490 more rows
…
Nenhuma dessas colunas irá gerar nomes espetaculares: medida_codigo não dá nenhuma pista quanto ao significado da variável e medida_titulo é uma longa frase, com espaços, Por enquanto, nós utilizaremos medida_codigo como a fonte de nossa nova coluna de nomes, mas em uma análise real você deveria considerar seu próprio nome de variável, que deve ser curto e informativo.

pivot_wider() tem a interface oposta à pivot_longer(): em vez de escolher o novo nome das colunas, nós precisamos fornecer as colunas existentes que definem os valores de (values_from) e o nome da coluna (names_from):

cms_paciente_experiencia |> 
  pivot_wider(
    names_from = medida_codigo,
    values_from = taxa_performance
  )

# A tibble: 500 × 9
   organizacao_id organizacao_nome         medida_titulo CAHPS_GRP_1 CAHPS_GRP_2
   <chr>          <chr>                    <chr>               <dbl>       <dbl>
 1 0446157747     USC CARE MEDICAL GROUP … Obtenção de …          63          NA
 2 0446157747     USC CARE MEDICAL GROUP … O quão bem o…          NA          87
 3 0446157747     USC CARE MEDICAL GROUP … CAHPS for MI…          NA          NA
 4 0446157747     USC CARE MEDICAL GROUP … Promoção e e…          NA          NA
 5 0446157747     USC CARE MEDICAL GROUP … Equipe do co…          NA          NA
 6 0446157747     USC CARE MEDICAL GROUP … Administraçã…          NA          NA
 7 0446162697     ASSOCIATION OF UNIVERSI… Obtenção de …          59          NA
 8 0446162697     ASSOCIATION OF UNIVERSI… O quão bem o…          NA          85
 9 0446162697     ASSOCIATION OF UNIVERSI… CAHPS for MI…          NA          NA
10 0446162697     ASSOCIATION OF UNIVERSI… Promoção e e…          NA          NA
# ℹ 490 more rows
# ℹ 4 more variables: CAHPS_GRP_3 <dbl>, CAHPS_GRP_5 <dbl>, CAHPS_GRP_8 <dbl>,
#   CAHPS_GRP_12 <dbl>

A saída ainda não parece muito correta; parece que ainda precisamos de múltiplas linhas para cada organização. Isso é por que também precisamos dizer à pivot_wider() qual a coluna ou colunas têm valores que identificam cada linha de forma única; nesse caso são as variáveis que começam com "org":

cms_paciente_experiencia |> 
  pivot_wider(
    id_cols = starts_with("organizacao"),
    names_from = medida_codigo,
    values_from = taxa_performance
  )

# A tibble: 95 × 8
   organizacao_id organizacao_nome           CAHPS_GRP_1 CAHPS_GRP_2 CAHPS_GRP_3
   <chr>          <chr>                            <dbl>       <dbl>       <dbl>
 1 0446157747     USC CARE MEDICAL GROUP INC          63          87          86
 2 0446162697     ASSOCIATION OF UNIVERSITY…          59          85          83
 3 0547164295     BEAVER MEDICAL GROUP PC             49          NA          75
 4 0749333730     CAPE PHYSICIANS ASSOCIATE…          67          84          85
 5 0840104360     ALLIANCE PHYSICIANS INC             66          87          87
 6 0840109864     REX HOSPITAL INC                    73          87          84
 7 0840513552     SCL HEALTH MEDICAL GROUP …          58          83          76
 8 0941545784     GRITMAN MEDICAL CENTER INC          46          86          81
 9 1052612785     COMMUNITY MEDICAL GROUP L…          65          84          80
10 1254237779     OUR LADY OF LOURDES MEMOR…          61          NA          NA
# ℹ 85 more rows
# ℹ 3 more variables: CAHPS_GRP_5 <dbl>, CAHPS_GRP_8 <dbl>, CAHPS_GRP_12 <dbl>
…
