R para Ciência de Dados (2ª edição) - 16 ✅ Fatores
…
df <- read_csv(csv, col_types = cols(mes = col_factor(niveis_meses)))
df$mes
#> [1] Jan Fev Mar
#> Levels: Jan Fev Mar Abr Mai Jun Jul Ago Set Out Nov Dez

16.3 Questionário

No restante deste capítulo, usaremos dados::questionario. É uma amostra de dados da Pesquisa Social Geral, uma pesquisa de longa data nos EUA conduzida pela organização de pesquisa independente NORC da Universidade de Chicago. A pesquisa tem milhares de perguntas, então em questionario, Hadley selecionou algumas que ilustrarão alguns desafios comuns que você encontrará ao trabalhar com fatores.

questionario
#> # A tibble: 21,483 × 9
#>     ano estado_civil  idade raca   renda             partido                 
#>   <int> <fct>         <int> <fct>  <fct>             <fct>                   
#> 1  2000 Nunca casou      26 Branca US$ 8000 - 9999   Independente, inclinaçã…
#> 2  2000 Divorciado(a)    48 Branca US$ 8000 - 9999   Não fortemente repubica…
#> 3  2000 Viúvo(a)         67 Branca Não se aplica     Independente            
#> 4  2000 Nunca casou      39 Branca Não se aplica     Independente, inclinaçã…
#> 5  2000 Divorciado(a)    25 Branca Não se aplica     Não fortemente democrata
#> 6  2000 Casado(a)        25 Branca US$ 20000 - 24999 Fortemente democrata    
#> # ℹ 21,477 more rows
#> # ℹ 3 more variables: religiao <fct>, denominacao <fct>, horas_tv <int>
…
16.4.1 Exercícios

Existem alguns números suspeitosamente altos em horas_tv. A média é um bom resumo?

Para cada fator em questionario, identifique se a ordem dos níveis é arbitrária ou fundamentada.

Por que mover “Não se aplica” para a frente dos níveis o moveu para a parte inferior do gráfico?

16.5 Modificando os níveis do fator

Mais poderoso do que alterar as ordens dos níveis é alterar os seus valores. Isso permite esclarecer rótulos para publicação e recolher níveis para exibições de alto nível. A ferramenta mais geral e poderosa é fct_recode(). Ela permite recodificar, ou alterar, o valor de cada nível. Por exemplo, pegue a variável partido do data frame questionario:

questionario |> count(partido)
#> # A tibble: 10 × 2
#>   partido                                  n
#>   <fct>                                <int>
#> 1 Sem resposta                           154
#> 2 Não sabe                                 1
#> 3 Outro partido                          393
#> 4 Fortemente republicano                2314
#> 5 Não fortemente repubicano             3032
#> 6 Independente, inclinação republicana  1791
#> # ℹ 4 more rows
…
    partido = fct_recode(partido,
      "Indivíduo fortemente republicano"    = "Fortemente republicano",
      "Indivíduo não fortemente republicano"      = "Não fortemente republicano",
      "Indivíduo independente com inclinação republicana" = "Independente, inclinação republicana",
      "Indivíduo independente com inclinação democrata" = "Independente, inclinação democrata",
      "Indivíduo não fortemente democrata"        = "Não fortemente democrata",
      "Indivíduo fortemente democrata"      = "Fortemente democrata"
    )
  ) |>
  count(partido)
#> Warning: There was 1 warning in `mutate()`.
#> ℹ In argument: `partido = fct_recode(...)`.
#> Caused by warning:
#> ! Unknown levels in `f`: Não fortemente republicano
#> # A tibble: 10 × 2
#>   partido                                               n
#>   <fct>                                             <int>
#> 1 Sem resposta                                        154
#> 2 Não sabe                                              1
#> 3 Outro partido                                       393
#> 4 Indivíduo fortemente republicano                   2314
#> 5 Não fortemente repubicano                          3032
#> 6 Indivíduo independente com inclinação republicana  1791
#> # ℹ 4 more rows
…
questionario |>
  mutate(religiao = fct_lump_lowfreq(religiao)) |>
  count(religiao)
#> # A tibble: 2 × 2
#>   religiao        n
#>   <fct>       <int>
#> 1 Protestante 10846
#> 2 Other       10637

Neste caso, não ajuda muito: é verdade que a maioria dos americanos nesta pesquisa são protestantes, mas provavelmente gostaríamos de ver mais alguns detalhes! Em vez disso, podemos usar fct_lump_n() para especificar que queremos exatamente 10 grupos:

questionario |>
  mutate(religiao = fct_lump_n(religiao, n = 10)) |>
  count(religiao, sort = TRUE)
#> # A tibble: 11 × 2
#>   religiao        n
#>   <fct>       <int>
#> 1 Protestante 10846
#> 2 Católica     5124
#> 3 Nenhuma      3523
#> 4 Cristã        689
#> 5 Judaísmo      388
#> 6 Other         234
#> # ℹ 5 more rows
…
