R para Ciência de Dados (2ª edição) - 9 ✅ Camadas
…
9.1.1 Pré-requisitos

Esse capítulo foca no ggplot2. Para acessar as páginas de ajuda e as funções utilizadas nesse capítulo, carregue o pacote tidyverse. Para acessar as bases de dados, carregaremos também o pacote dados. Ao rodar o código abaixo, esses dois pacotes serão carregados:

library(tidyverse)
library(dados)

9.2 Mapeamento estético

“O maior valor de uma imagem está em quando ela nos força a perceber o que não esperávamos ver.” — John Tukey

Lembre-se de que a base de dados milhas incluída no pacote dados contém 234 observações de 38 modelos de carros.

milhas
#> # A tibble: 234 × 11
#>   fabricante modelo cilindrada   ano cilindros transmissao tracao cidade
#>   <chr>      <chr>       <dbl> <int>     <int> <chr>       <chr>   <int>
#> 1 audi       a4            1.8  1999         4 auto(l5)    d          18
#> 2 audi       a4            1.8  1999         4 manual(m5)  d          21
#> 3 audi       a4            2    2008         4 manual(m6)  d          20
#> 4 audi       a4            2    2008         4 auto(av)    d          21
#> 5 audi       a4            2.8  1999         6 auto(l5)    d          16
#> 6 audi       a4            2.8  1999         6 manual(m5)  d          18
#> # ℹ 228 more rows
#> # ℹ 3 more variables: rodovia <int>, combustivel <chr>, classe <chr>
…
