R para Ciência de Dados (2ª edição) - 12 ✅ Vetores lógicos
…
library(tidyverse)
library(dados)

No entanto, à medida que começamos a estudar novas ferramentas, nem sempre haverá um exemplo real perfeito. Então, começaremos a criar alguns dados fictícios com c():

x <- c(1, 2, 3, 5, 7, 11, 13)
x * 2
#> [1]  2  4  6 10 14 22 26

Isso facilita a explicação de funções individuais, ao custo de dificultar a visualização de como elas podem se aplicar aos seus problemas de dados. Apenas lembre-se de que qualquer transformação que fizermos em um vetor simples, você poderá fazer em uma variável dentro de data frame com mutate() e demais funções amigas.

df <- tibble(x)
df |> 
  mutate(y = x * 2)
#> # A tibble: 7 × 2
#>       x     y
#>   <dbl> <dbl>
#> 1     1     2
#> 2     2     4
#> 3     3     6
#> 4     5    10
#> 5     7    14
#> 6    11    22
#> # ℹ 1 more row

12.2 Comparações

Uma forma muito comum de criar um vetor lógico é através de uma comparação numérica usando <, <=, >, >=, != e ==. Até agora, criamos principalmente variáveis ​​lógicas temporariamente dentro do filter() — elas são calculadas, usadas e depois jogadas fora. Por exemplo, o filtro abaixo encontra todo os voos que sairam durante o dia e chegaram aproximadamente no horário:

voos |> 
  filter(horario_saida > 600 & horario_saida < 2000 & abs(atraso_chegada) < 20)
#> # A tibble: 172,286 × 19
#>     ano   mes   dia horario_saida saida_programada atraso_saida
#>   <int> <int> <int>         <int>            <int>        <dbl>
#> 1  2013     1     1           601              600            1
#> 2  2013     1     1           602              610           -8
#> 3  2013     1     1           602              605           -3
#> 4  2013     1     1           606              610           -4
#> 5  2013     1     1           606              610           -4
#> 6  2013     1     1           607              607            0
#> # ℹ 172,280 more rows
#> # ℹ 13 more variables: horario_chegada <int>, chegada_prevista <int>, …

É útil saber que isto é apenas um atalho e você pode explicitamente criar a variável lógica intrínseca com mutate():

voos |> 
  mutate(
    diurno = horario_saida > 600 & horario_saida < 2000,
    aprox_no_horario = abs(atraso_chegada) < 20,
    .keep = "used"
  )
#> # A tibble: 336,776 × 4
#>   horario_saida atraso_chegada diurno aprox_no_horario
#>           <int>          <dbl> <lgl>  <lgl>           
#> 1           517             11 FALSE  TRUE            
#> 2           533             20 FALSE  FALSE           
#> 3           542             33 FALSE  FALSE           
#> 4           544            -18 FALSE  TRUE            
#> 5           554            -25 FALSE  FALSE           
#> 6           554             12 FALSE  TRUE            
#> # ℹ 336,770 more rows
…
is.na(x) funciona com qualquer tipo de vetor e retorna TRUE para valores faltantes e FALSE para qualquer outra coisa:

is.na(c(TRUE, NA, FALSE))
#> [1] FALSE  TRUE FALSE
is.na(c(1, NA, 3))
#> [1] FALSE  TRUE FALSE
is.na(c("a", NA, "b"))
#> [1] FALSE  TRUE FALSE

Podemos usar is.na() para encontrar todos os registros com horario_saida faltando:

voos |> 
  filter(is.na(horario_saida))
#> # A tibble: 8,255 × 19
#>     ano   mes   dia horario_saida saida_programada atraso_saida
#>   <int> <int> <int>         <int>            <int>        <dbl>
#> 1  2013     1     1            NA             1630           NA
#> 2  2013     1     1            NA             1935           NA
#> 3  2013     1     1            NA             1500           NA
#> 4  2013     1     1            NA              600           NA
#> 5  2013     1     2            NA             1540           NA
#> 6  2013     1     2            NA             1620           NA
#> # ℹ 8,249 more rows
#> # ℹ 13 more variables: horario_chegada <int>, chegada_prevista <int>, …

is.na() também pode ser útil em arrange(). arrange() geralmente coloca todos os valores faltantes no final, mas você pode sobreescrever este padrão ordenando primeiro com is.na():

voos |> 
  filter(mes == 1, dia == 1) |> 
  arrange(horario_saida)
#> # A tibble: 842 × 19
#>     ano   mes   dia horario_saida saida_programada atraso_saida
#>   <int> <int> <int>         <int>            <int>        <dbl>
#> 1  2013     1     1           517              515            2
#> 2  2013     1     1           533              529            4
#> 3  2013     1     1           542              540            2
#> 4  2013     1     1           544              545           -1
#> 5  2013     1     1           554              600           -6
#> 6  2013     1     1           554              558           -4
#> # ℹ 836 more rows
#> # ℹ 13 more variables: horario_chegada <int>, chegada_prevista <int>, …

voos |> 
  filter(mes == 1, dia == 1) |> 
  arrange(desc(is.na(horario_saida)), horario_saida)
#> # A tibble: 842 × 19
#>     ano   mes   dia horario_saida saida_programada atraso_saida
#>   <int> <int> <int>         <int>            <int>        <dbl>
#> 1  2013     1     1            NA             1630           NA
#> 2  2013     1     1            NA             1935           NA
#> 3  2013     1     1            NA             1500           NA
#> 4  2013     1     1            NA              600           NA
#> 5  2013     1     1           517              515            2
#> 6  2013     1     1           533              529            4
#> # ℹ 836 more rows
#> # ℹ 13 more variables: horario_chegada <int>, chegada_prevista <int>, …
…
Para entender o que está acontecendo aqui, pense em NA | TRUE (NA ou TRUE). Um valor faltante (missing value) em um vetor lógico significa que o valor poderia ser TRUE ou FALSE. TRUE | TRUE e FALSE | TRUE são ambos TRUE pois ao menos um dos termos é TRUE. NA | TRUE também deve ser TRUE pois NA pode ser TRUE ou FALSE. Entretanto, NA | FALSE é NA pois não sabemos se NA é TRUE ou FALSE. O mesmo se aplica com NA & FALSE.

12.3.2 Ordem das operações

Observe que a ordem das operações não funcionam como em Português. Veja o seguinte código que encontra todos os voos que saíram em novembro ou dezembro:

voos |> 
   filter(mes == 11 | mes == 12)

Você pode estar tentado a escrevê-lo da forma que falaria em Português: “Encontre todos os voos que saíram em Novemebro e Dezembro.”:

voos |> 
   filter(mes == 11 | 12)
#> # A tibble: 336,776 × 19
#>     ano   mes   dia horario_saida saida_programada atraso_saida
#>   <int> <int> <int>         <int>            <int>        <dbl>
#> 1  2013     1     1           517              515            2
#> 2  2013     1     1           533              529            4
#> 3  2013     1     1           542              540            2
#> 4  2013     1     1           544              545           -1
#> 5  2013     1     1           554              600           -6
#> 6  2013     1     1           554              558           -4
#> # ℹ 336,770 more rows
#> # ℹ 13 more variables: horario_chegada <int>, chegada_prevista <int>, …

Este código não gera erro, mas também não parece ter funcionado. O que acontece aqui? Neste caso, o R calcula mes == 11 criando um vetor lógico, o qual chamaremos de nov. Então calcula nov | 12. Quando usamos um número com um operador lógico, ele converte tudo exceto 0 para TRUE, o que é equivalente a nov | TRUE o que é sempre TRUE, então cada linha será selecionada:

voos |> 
  mutate(
    nov = mes == 11,
    final = nov | 12,
    .keep = "used"
  )
#> # A tibble: 336,776 × 3
#>     mes nov   final
#>   <int> <lgl> <lgl>
#> 1     1 FALSE TRUE 
#> 2     1 FALSE TRUE 
#> 3     1 FALSE TRUE 
#> 4     1 FALSE TRUE 
#> 5     1 FALSE TRUE 
#> 6     1 FALSE TRUE 
#> # ℹ 336,770 more rows
…
voos |> 
  filter(mes %in% c(11, 12))

Note que %in% possui diferentes regras do NA para ==, uma vez que NA %in% NA é TRUE.

c(1, 2, NA) == NA
#> [1] NA NA NA
c(1, 2, NA) %in% NA
#> [1] FALSE FALSE  TRUE

Isto pode ser um atalho útil:

voos |> 
  filter(horario_saida %in% c(NA, 0800))
#> # A tibble: 8,803 × 19
#>     ano   mes   dia horario_saida saida_programada atraso_saida
#>   <int> <int> <int>         <int>            <int>        <dbl>
#> 1  2013     1     1           800              800            0
#> 2  2013     1     1           800              810          -10
#> 3  2013     1     1            NA             1630           NA
#> 4  2013     1     1            NA             1935           NA
#> 5  2013     1     1            NA             1500           NA
#> 6  2013     1     1            NA              600           NA
#> # ℹ 8,797 more rows
#> # ℹ 13 more variables: horario_chegada <int>, chegada_prevista <int>, …
…
12.4.1 Sumarizações lógicas

Existem dois sumarizadores lógicos: any() e all(). any(x) é o equivalente ao |; retornará TRUE se houver algum TRUE em x. all(x) é o equivalente ao &; retornará TRUE somente se todos os valores de x forem TRUE. Assim como todas as funções de sumarização, elas retornarão NA se houver qualquer valor faltante (missing value) presente, e como de costume, você pode não considerá-los usando na.rm = TRUE.

Por exemplo, poderíamos usar all() e any() para descobrir se todos os voos foram atrasados na partida por no máximo uma hora ou se algum voo atrasou na chegada por cinco horas ou mais. E usando group_by() podemos fazer isso para cada dia:

voos |> 
  group_by(ano, mes, dia) |> 
  summarize(
    todos_atrasados = all(atraso_saida <= 60, na.rm = TRUE),
    algum_atraso_longo = any(atraso_chegada >= 300, na.rm = TRUE),
    .groups = "drop"
  )
#> # A tibble: 365 × 5
#>     ano   mes   dia todos_atrasados algum_atraso_longo
#>   <int> <int> <int> <lgl>           <lgl>             
#> 1  2013     1     1 FALSE           TRUE              
#> 2  2013     1     2 FALSE           TRUE              
#> 3  2013     1     3 FALSE           FALSE             
#> 4  2013     1     4 FALSE           FALSE             
#> 5  2013     1     5 FALSE           TRUE              
#> 6  2013     1     6 FALSE           FALSE             
#> # ℹ 359 more rows
…
12.4.2 Sumarizações numéricas de vetores lógicos

Quando você usa um vetor lógico em um contexto numérico, TRUE se torna 1 e FALSE se torna 0. Isto torna sum() e mean() muito úteis com vetores lógicos, pois sum(x) retorna o número de TRUEs e mean(x) retorna a proporção de TRUEs (pois mean() é sum() dividido por length()).

Isto, por exemplo, nos permite ver a proporção de voos que tiveram atraso na saída em até uma hora e o número de voos que chegaram atrasados em cinco horas ou mais:

voos |> 
  group_by(ano, mes, dia) |> 
  summarize(
    todos_atrasados = mean(atraso_saida <= 60, na.rm = TRUE),
    algum_atraso_longo = sum(atraso_chegada >= 300, na.rm = TRUE),
    .groups = "drop"
  )
#> # A tibble: 365 × 5
#>     ano   mes   dia todos_atrasados algum_atraso_longo
#>   <int> <int> <int>           <dbl>              <int>
#> 1  2013     1     1           0.939                  3
#> 2  2013     1     2           0.914                  3
#> 3  2013     1     3           0.941                  0
#> 4  2013     1     4           0.953                  0
#> 5  2013     1     5           0.964                  1
#> 6  2013     1     6           0.959                  0
#> # ℹ 359 more rows
12.4.3 Subconjunto (subsetting) lógico

Existe ainda um último uso de vetores lógicos em sumarizações: você pode usar um vetor lógico para filtrar uma única variável em um subconjunto (subset) de interesse. Isto faz uso do operador do R base [ (se pronuncia subset), o qual você aprenderá mais na Seção 27.2.

Imagine que gostaríamos de encontrar a média de atraso somente de voos que realmente estiveram atrasados. Uma forma de fazê-lo seria primeiro filtrar os voos e depois calcular a média de atraso:

voos |> 
  filter(atraso_chegada > 0) |> 
  group_by(ano, mes, dia) |> 
  summarize(
    atraso_medio = mean(atraso_chegada),
    n = n(),
    .groups = "drop"
  )
#> # A tibble: 365 × 5
#>     ano   mes   dia atraso_medio     n
#>   <int> <int> <int>        <dbl> <int>
#> 1  2013     1     1         32.5   461
#> 2  2013     1     2         32.0   535
#> 3  2013     1     3         27.7   460
#> 4  2013     1     4         28.3   297
#> 5  2013     1     5         22.6   238
#> 6  2013     1     6         24.4   381
#> # ℹ 359 more rows

Isto funciona, mas e se você quisesse calcular o atraso médio também para voos que chegaram antecipadamente? Precisaríamos fazer um passo extra de filtro e então combinar os dois data frames3. Ao invés disso, você poderia usar [ para executar um filtro em linha (inline): atraso_chegada[atraso_chegada > 0] irá retornar apenas os atrasos positivos na chegada.

Isso leva a:

voos |> 
  group_by(ano, mes, dia) |> 
  summarize(
    atrasado = mean(atraso_chegada[atraso_chegada > 0], na.rm = TRUE),
    antecipado = mean(atraso_chegada[atraso_chegada < 0], na.rm = TRUE),
    n = n(),
    .groups = "drop"
  )
#> # A tibble: 365 × 6
#>     ano   mes   dia atrasado antecipado     n
#>   <int> <int> <int>    <dbl>      <dbl> <int>
#> 1  2013     1     1     32.5      -12.5   842
#> 2  2013     1     2     32.0      -14.3   943
#> 3  2013     1     3     27.7      -18.2   914
#> 4  2013     1     4     28.3      -17.0   915
#> 5  2013     1     5     22.6      -14.0   720
#> 6  2013     1     6     24.4      -13.6   832
#> # ℹ 359 more rows
…
Assim como com if_else() você pode usar variáveis ​​em ambos os lados do ~ e pode misturar e combinar variáveis ​​conforme necessário para o seu problema. Por exemplo, poderíamos usar case_when() para fornecer alguns rótulos legíveis para o atraso de chegada:

voos |> 
  mutate(
    status = case_when(
      is.na(atraso_chegada)      ~ "cancelado",
      atraso_chegada < -30       ~ "muito antecipado",
      atraso_chegada < -15       ~ "antecipado",
      abs(atraso_chegada) <= 15  ~ "no horario",
      atraso_chegada < 60        ~ "atrasado",
      atraso_chegada < Inf       ~ "muito atrasdo",
    ),
    .keep = "used"
  )
#> # A tibble: 336,776 × 2
#>   atraso_chegada status    
#>            <dbl> <chr>     
#> 1             11 no horario
#> 2             20 atrasado  
#> 3             33 atrasado  
#> 4            -18 antecipado
#> 5            -25 antecipado
#> 6             12 no horario
#> # ℹ 336,770 more rows
…
