R para Ciência de Dados (2ª edição) - 13 Números
…
Use parse_number() quando possuir strings que contenham textos não numéricos que você deseja ignorar. Isto é particularmente útil para dados de moedas e porcentagens:

x <- c("$1,234", "USD 3,513", "59%")
parse_number(x)
#> [1] 1234 3513   59

13.3 Contagens

É uma supresa o quanto de ciência de dados você pode fazer somente com um pouco de contagem e aritmética básica, então o pacote dplyr torna a contagem o mais fácil possível com count(). Esta função é ótima para explorações rápidas e validações durante a análise:

voos |> count(destino)
#> # A tibble: 105 × 2
#>   destino     n
#>   <chr>   <int>
#> 1 ABQ       254
#> 2 ACK       265
#> 3 ALB       439
#> 4 ANC         8
#> 5 ATL     17215
#> 6 AUS      2439
#> # ℹ 99 more rows

(Independente do conselho no Capítulo 4, normalmente colocamos count() em uma única linha, pois é usado geralmente em linha de comando (console) para uma rápida verificação que um cálculo está funcionando como esperado.)

Se você quiser os valores mais comuns, adicione sort = TRUE:

voos |> count(destino, sort = TRUE)
#> # A tibble: 105 × 2
#>   destino     n
#>   <chr>   <int>
#> 1 ORD     17283
#> 2 ATL     17215
#> 3 LAX     16174
#> 4 BOS     15508
#> 5 MCO     14082
#> 6 CLT     14064
#> # ℹ 99 more rows

E lembre-se que, se você quiser ver todos os valores, você pode usar |> View() ou |> print(n = Inf).

Você pode fazer o mesmo cálculo “na mão” com group_by(), summarize() e n(). Isto é útil pois permite que você faça outras sumarizações ao mesmo tempo:

voos |> 
  group_by(destino) |> 
  summarize(
    n = n(),
    atraso = mean(atraso_chegada, na.rm = TRUE)
  )
#> # A tibble: 105 × 3
#>   destino     n atraso
#>   <chr>   <int>  <dbl>
#> 1 ABQ       254   4.38
#> 2 ACK       265   4.85
#> 3 ALB       439  14.4 
#> 4 ANC         8  -2.5 
#> 5 ATL     17215  11.3 
#> 6 AUS      2439   6.02
#> # ℹ 99 more rows
…
n()
#> Error in `n()`:
#> ! Must only be used inside data-masking verbs like `mutate()`,
#>   `filter()`, and `group_by()`.

Existem algumas variações de n() e count() que você deve achar útil:

n_distinct(x) conta o número de valores distintos (únicos) de uma ou mais variáveis. Por exemplo, poderíamos obter quais destinos são mais oferecidos por companhia aérea:

voos |> 
  group_by(destino) |> 
  summarize(companhia_aerea = n_distinct(companhia_aerea)) |> 
  arrange(desc(companhia_aerea))
#> # A tibble: 105 × 2
#>   destino companhia_aerea
#>   <chr>             <int>
#> 1 ATL                   7
#> 2 BOS                   7
#> 3 CLT                   7
#> 4 ORD                   7
#> 5 TPA                   7
#> 6 AUS                   6
#> # ℹ 99 more rows

Uma contagem ponderada (weigthed count) é uma soma. Pode exemplo, você poderia “contar” o número de milhas que cada avião voou:

voos |> 
  group_by(codigo_cauda) |> 
  summarize(milhas = sum(distancia))
#> # A tibble: 4,044 × 2
#>   codigo_cauda milhas
#>   <chr>         <dbl>
#> 1 D942DN         3418
#> 2 N0EGMQ       250866
#> 3 N10156       115966
#> 4 N102UW        25722
#> 5 N103US        24619
#> 6 N104UW        25157
#> # ℹ 4,038 more rows

Contagem ponderada é um problema tão comum que count() tem um argumento wt que faz a mesma coisa:

voos |> count(codigo_cauda, wt = distancia)

Você pode contar valores faltantes (missing values) combinando sum() e is.na(). No conjunto de dados voos isto representa os voos cancelados:

voos |> 
  group_by(destino) |> 
  summarize(num_cancelados = sum(is.na(horario_saida))) 
#> # A tibble: 105 × 2
#>   destino num_cancelados
#>   <chr>            <int>
#> 1 ABQ                  0
#> 2 ACK                  0
#> 3 ALB                 20
#> 4 ANC                  0
#> 5 ATL                317
#> 6 AUS                 21
#> # ℹ 99 more rows
…
Geralmente, você quer reciclar apenas números únicos (i.e. vetores de tamanho 1), mas o R irá reciclar qualquer vetor de menor tamanho. Em geral (mas nem sempre), o R te retorna uma mensagem de aviso se o vetor maior não é um múltiplo do menor:

x * c(1, 2)
#> [1]  1  4 10 40
x * c(1, 2, 3)
#> Warning in x * c(1, 2, 3): longer object length is not a multiple of shorter
#> object length
#> [1]  1  4 30 20

Estas regras de reciclagem se aplicam também a comparações lógicas (==, <, <=, >, >=, !=) e podem levar à resultados surpreendentes se você acidentalmente usar == ao invés de %in% e o data frame tiver um número lamentável de linhas. Por exemplo, veja este código que tenta encontrar todos os voos de Janeiro e Fevereiro:

voos |> 
  filter(mes == c(1, 2))
#> # A tibble: 25,977 × 19
#>     ano   mes   dia horario_saida saida_programada atraso_saida
#>   <int> <int> <int>         <int>            <int>        <dbl>
#> 1  2013     1     1           517              515            2
#> 2  2013     1     1           542              540            2
#> 3  2013     1     1           554              600           -6
#> 4  2013     1     1           555              600           -5
#> 5  2013     1     1           557              600           -3
#> 6  2013     1     1           558              600           -2
#> # ℹ 25,971 more rows
#> # ℹ 13 more variables: horario_chegada <int>, chegada_prevista <int>, …
…
1:10 %/% 3
#>  [1] 0 0 1 1 1 2 2 2 3 3
1:10 %% 3
#>  [1] 1 2 0 1 2 0 1 2 0 1

Aritmética modular é útil para o conjunto de dados voos, pois podemos usá-la para quebrar a variável saida_programada em hora e minuto:

voos |> 
  mutate(
    hora = saida_programada %/% 100,
    minuto = saida_programada %% 100,
    .keep = "used"
  )
#> # A tibble: 336,776 × 3
#>   saida_programada  hora minuto
#>              <int> <dbl>  <dbl>
#> 1              515     5     15
#> 2              529     5     29
#> 3              540     5     40
#> 4              545     5     45
#> 5              600     6      0
#> 6              558     5     58
#> # ℹ 336,770 more rows
…
Você pode chegar nos mesmos resultados selecionando o argumento ties.method adequado na rank() do R base; você provavelmente desejará definir na.last = "keep" para manter NAs como NA.

row_number() também pode ser usada sem nenhum argumento dentro de um verbo dplyr. Neste caso, irá te retornar o número da linha “atual”. Quando combinado com %% ou %/%, pode ser uma ferramenta útil para dividir os dados em grupos de tamanhos parecidos:

df <- tibble(id = 1:10)

df |> 
  mutate(
    linha_0 = row_number() - 1,
    tres_grupos = linha_0 %% 3,
    tres_em_cada_grupo = linha_0 %/% 3
  )
#> # A tibble: 10 × 4
#>      id linha_0 tres_grupos tres_em_cada_grupo
#>   <int>   <dbl>       <dbl>              <dbl>
#> 1     1       0           0                  0
#> 2     2       1           1                  0
#> 3     3       2           2                  0
#> 4     4       3           0                  1
#> 5     5       4           1                  1
#> 6     6       5           2                  1
#> # ℹ 4 more rows
…
Às vezes você deseja iniciar um novo grupo sempre que algum evento ocorrer. Por exemplo, quando você analisa dados de um site, é comum querer dividir os eventos em sessões, onde você inicia uma nova sessão após um intervalo de mais de x minutos desde a última atividade. Por exemplo, imagine que você tenha os horários em que alguém visitou um site:

eventos <- tibble(
  horario = c(0, 1, 2, 3, 5, 10, 12, 15, 17, 19, 20, 27, 28, 30)
)

E você calculou o período entre cada ocorrência de eventos, e descobriu se há um intervalo grande o suficiente para se qualificar:

eventos <- eventos |> 
  mutate(
    diferenca = horario - lag(horario, default = first(horario)),
    tem_intervalo_grande = diferenca >= 5
  )
eventos
#> # A tibble: 14 × 3
#>   horario diferenca tem_intervalo_grande
#>     <dbl>     <dbl> <lgl>               
#> 1       0         0 FALSE               
#> 2       1         1 FALSE               
#> 3       2         1 FALSE               
#> 4       3         1 FALSE               
#> 5       5         2 FALSE               
#> 6      10         5 TRUE                
#> # ℹ 8 more rows

Mas como podemos ir deste vetor lógico para algo que podemos agrupar com group_by()? cumsum(), da Seção 13.4.7, vem pra ajudar com intervalos (gaps), e.x. tem_intervalo_grande como TRUE, irá incrementar grupo em um (Seção 12.4.2):

eventos |> mutate(
  grupo = cumsum(tem_intervalo_grande)
)
#> # A tibble: 14 × 4
#>   horario diferenca tem_intervalo_grande grupo
#>     <dbl>     <dbl> <lgl>                <int>
#> 1       0         0 FALSE                    0
#> 2       1         1 FALSE                    0
#> 3       2         1 FALSE                    0
#> 4       3         1 FALSE                    0
#> 5       5         2 FALSE                    0
#> 6      10         5 TRUE                     1
#> # ℹ 8 more rows

Outra abordagem para criar variáveis de grupo é consecutive_id(), que inicia um novo grupo toda vez que algum de seus argumentos muda. Por exemplo, inspirado nesta pergunta do stackoverflow, imagine que você tenha um data frame com vários valores repetidos:

df <- tibble(
  x = c("a", "a", "a", "b", "c", "c", "d", "e", "a", "a", "b", "b"),
  y = c(1, 2, 3, 2, 4, 1, 3, 9, 4, 8, 10, 199)
)

Se você quer manter a primeira linha para cada xrepetido, você pode usar group_by(), consecutive_id() e slice_head():

df |> 
  group_by(id = consecutive_id(x)) |> 
  slice_head(n = 1)
#> # A tibble: 7 × 3
#> # Groups:   id [7]
#>   x         y    id
#>   <chr> <dbl> <int>
#> 1 a         1     1
#> 2 b         2     2
#> 3 c         4     3
#> 4 d         3     4
#> 5 e         9     5
#> 6 a         4     6
#> # ℹ 1 more row
…
13.6.2 Minimos, maximos e quantis

E se você tiver interesse em saber as posições diferentes do centro? min() e max() te darão os menores e maiores valores. Uma outra poderosa ferramenta é a quantile() que é uma generalização da mediana: quantile(x, 0.25) retorna o valor de x que é maior que 25% dos valores, quantile(x, 0.5) é equivalente à mediana e quantile(x, 0.95) retornará o valor que é maior que 95% dos valores.

Para os dados de voos, você pode querer olhar no quantil 95% dos voos em atraso ao invés do valor máximo, pois isto ignora os voos com maior atraso, os quais podem ser muito extremos.

voos |>
  group_by(ano, mes, dia) |>
  summarize(
    max = max(atraso_saida, na.rm = TRUE),
    q95 = quantile(atraso_saida, 0.95, na.rm = TRUE),
    .groups = "drop"
  )
#> # A tibble: 365 × 5
#>     ano   mes   dia   max   q95
#>   <int> <int> <int> <dbl> <dbl>
#> 1  2013     1     1   853  70.1
#> 2  2013     1     2   379  85  
#> 3  2013     1     3   291  68  
#> 4  2013     1     4   288  60  
#> 5  2013     1     5   327  41  
#> 6  2013     1     6   202  51  
#> # ℹ 359 more rows
…
Há um último tipo de sumarização útil para vetores numéricos, que também funciona para outros tipos de valores: extrair um valor em uma posição específica: first(x), last(x) e nth(x, n).

Por exemplo, podemos encontrar a primeira e última saída em cada dia:

voos |> 
  group_by(ano, mes, dia) |> 
  summarize(
    primeira_saida = first(horario_saida, na_rm = TRUE), 
    quinta_saida = nth(horario_saida, 5, na_rm = TRUE),
    ultima_saida = last(horario_saida, na_rm = TRUE)
  )
#> `summarise()` has grouped output by 'ano', 'mes'. You can override using the
#> `.groups` argument.
#> # A tibble: 365 × 6
#> # Groups:   ano, mes [12]
#>     ano   mes   dia primeira_saida quinta_saida ultima_saida
#>   <int> <int> <int>          <int>        <int>        <int>
#> 1  2013     1     1            517          554         2356
#> 2  2013     1     2             42          535         2354
#> 3  2013     1     3             32          520         2349
#> 4  2013     1     4             25          531         2358
#> 5  2013     1     5             14          534         2357
#> 6  2013     1     6             16          555         2355
#> # ℹ 359 more rows

(NB: Uma vez que as funções do dplyr usam _ para separar componentes da função e nomes de argumentos, estas funções usam na_rm ao invés de na.rm.)

Se você está familiarizado com [, o qual retornaremos na Seção 27.2, você pode estar se perguntando se você realmente precisa destas funções. Existem três razões: o argumento default permite que você forneça um padrão se a posição especificada não existir, o argumento order_by permite que você ordene localmente sobrescrevendo a ordenação das linhas, e o argumento na_rm permite você ignorar valores faltantes (missing values).

Extrair valores em determinada posição é complementar à filtrar em ranqueamentos. Filtrar retorna todas as variáveis, com cada observação em uma linha separada:

voos |> 
  group_by(ano, mes, dia) |> 
  mutate(r = min_rank(saida_programada)) |> 
  filter(r %in% c(1, max(r)))
#> # A tibble: 1,195 × 20
#> # Groups:   ano, mes, dia [365]
#>     ano   mes   dia horario_saida saida_programada atraso_saida
#>   <int> <int> <int>         <int>            <int>        <dbl>
#> 1  2013     1     1           517              515            2
#> 2  2013     1     1          2353             2359           -6
#> 3  2013     1     1          2353             2359           -6
#> 4  2013     1     1          2356             2359           -3
#> 5  2013     1     2            42             2359           43
#> 6  2013     1     2           458              500           -2
#> # ℹ 1,189 more rows
#> # ℹ 14 more variables: horario_chegada <int>, chegada_prevista <int>, …
…
